^C:\USERS\FRANFLOW\DESKTOP\CEDV\PRUEBAS DE EJEMPLOS\M2_S9_2_GESTIONESCENA\OBJ\DEBUG\EJEMPLO2.2.EXE.EMBED.MANIFEST.RES|C:\USERS\FRANFLOW\DESKTOP\CEDV\PRUEBAS DE EJEMPLOS\M2_S9_2_GESTIONESCENA\OBJ\DEBUG\MAIN.OBJ|C:\USERS\FRANFLOW\DESKTOP\CEDV\PRUEBAS DE EJEMPLOS\M2_S9_2_GESTIONESCENA\OBJ\DEBUG\MYAPP.OBJ|C:\USERS\FRANFLOW\DESKTOP\CEDV\PRUEBAS DE EJEMPLOS\M2_S9_2_GESTIONESCENA\OBJ\DEBUG\MYFRAMELISTENER.OBJ
D:\OGRESDK\OGRESDK_VC10_V1-8-1\LIB\DEBUG\OGREMAIN_D.LIB
D:\OGRESDK\OGRESDK_VC10_V1-8-1\LIB\DEBUG\OIS_D.LIB
C:\PROGRAM FILES (X86)\MICROSOFT SDKS\WINDOWS\V7.0A\LIB\KERNEL32.LIB
C:\PROGRAM FILES (X86)\MICROSOFT SDKS\WINDOWS\V7.0A\LIB\USER32.LIB
C:\PROGRAM FILES (X86)\MICROSOFT SDKS\WINDOWS\V7.0A\LIB\GDI32.LIB
C:\PROGRAM FILES (X86)\MICROSOFT SDKS\WINDOWS\V7.0A\LIB\WINSPOOL.LIB
C:\PROGRAM FILES (X86)\MICROSOFT SDKS\WINDOWS\V7.0A\LIB\COMDLG32.LIB
C:\PROGRAM FILES (X86)\MICROSOFT SDKS\WINDOWS\V7.0A\LIB\ADVAPI32.LIB
C:\PROGRAM FILES (X86)\MICROSOFT SDKS\WINDOWS\V7.0A\LIB\SHELL32.LIB
C:\PROGRAM FILES (X86)\MICROSOFT SDKS\WINDOWS\V7.0A\LIB\OLE32.LIB
C:\PROGRAM FILES (X86)\MICROSOFT SDKS\WINDOWS\V7.0A\LIB\OLEAUT32.LIB
C:\PROGRAM FILES (X86)\MICROSOFT SDKS\WINDOWS\V7.0A\LIB\UUID.LIB
C:\PROGRAM FILES (X86)\MICROSOFT SDKS\WINDOWS\V7.0A\LIB\ODBC32.LIB
C:\PROGRAM FILES (X86)\MICROSOFT SDKS\WINDOWS\V7.0A\LIB\ODBCCP32.LIB
C:\USERS\FRANFLOW\DESKTOP\CEDV\PRUEBAS DE EJEMPLOS\M2_S9_2_GESTIONESCENA\OBJ\DEBUG\EJEMPLO2.2.EXE.EMBED.MANIFEST.RES
C:\USERS\FRANFLOW\DESKTOP\CEDV\PRUEBAS DE EJEMPLOS\M2_S9_2_GESTIONESCENA\OBJ\DEBUG\MAIN.OBJ
C:\USERS\FRANFLOW\DESKTOP\CEDV\PRUEBAS DE EJEMPLOS\M2_S9_2_GESTIONESCENA\OBJ\DEBUG\MYAPP.OBJ
C:\USERS\FRANFLOW\DESKTOP\CEDV\PRUEBAS DE EJEMPLOS\M2_S9_2_GESTIONESCENA\OBJ\DEBUG\MYFRAMELISTENER.OBJ
C:\WINDOWS\GLOBALIZATION\SORTING\SORTDEFAULT.NLS
C:\PROGRAM FILES (X86)\MICROSOFT VISUAL STUDIO 10.0\VC\LIB\MSVCPRTD.LIB
D:\OGRESDK\OGRESDK_VC10_V1-8-1\BOOST\LIB\LIBBOOST_THREAD-VC100-MT-GD-1_49.LIB
D:\OGRESDK\OGRESDK_VC10_V1-8-1\BOOST\LIB\LIBBOOST_DATE_TIME-VC100-MT-GD-1_49.LIB
C:\PROGRAM FILES (X86)\MICROSOFT VISUAL STUDIO 10.0\VC\LIB\MSVCRTD.LIB
C:\PROGRAM FILES (X86)\MICROSOFT VISUAL STUDIO 10.0\VC\LIB\OLDNAMES.LIB
C:\PROGRAM FILES (X86)\MICROSOFT VISUAL STUDIO 10.0\VC\BIN\CVTRES.EXE
C:\WINDOWS\SYSTEM32\TZRES.DLL
C:\USERS\FRANFLOW\DESKTOP\CEDV\PRUEBAS DE EJEMPLOS\M2_S9_2_GESTIONESCENA\EJEMPLO2.2.EXE
C:\USERS\FRANFLOW\DESKTOP\CEDV\PRUEBAS DE EJEMPLOS\M2_S9_2_GESTIONESCENA\EJEMPLO2.2.ILK
C:\USERS\FRANFLOW\DESKTOP\CEDV\PRUEBAS DE EJEMPLOS\M2_S9_2_GESTIONESCENA\EJEMPLO2.2.PDB
C:\PROGRAM FILES (X86)\MICROSOFT VISUAL STUDIO 10.0\VC\BIN\LINK.EXE
