^F:\DOCUMENTOS\VISUAL STUDIO 2010\PROJECTS\EJEMPLO1\EJEMPLO1\DEBUG\EJEMPLO1.EXE.EMBED.MANIFEST.RES|F:\DOCUMENTOS\VISUAL STUDIO 2010\PROJECTS\EJEMPLO1\EJEMPLO1\DEBUG\MAIN.OBJ
F:\DOCUMENTOS\VISUAL STUDIO 2010\PROJECTS\EJEMPLO1\DEBUG\EJEMPLO1.ILK
F:\DOCUMENTOS\VISUAL STUDIO 2010\PROJECTS\EJEMPLO1\DEBUG\EJEMPLO1.EXE
F:\DOCUMENTOS\VISUAL STUDIO 2010\PROJECTS\EJEMPLO1\EJEMPLO1\DEBUG\EJEMPLO1.EXE.INTERMEDIATE.MANIFEST
F:\DOCUMENTOS\VISUAL STUDIO 2010\PROJECTS\EJEMPLO1\DEBUG\EJEMPLO1.PDB
